/*********************************************************************************
Initial conditions from MADX stitched model of PS => ps_tt2fta for fta optics
*********************************************************************************/

betx0              =       2.9711115930e+01 ;
bety0              =       1.2868030193e+01 ;
alfx0              =       4.7355930362e-01 ;
alfy0              =       4.2329956398e-02 ;
dx0                =       5.1302411754e+00 ;
dy0                =      -0.0000000000e+00 ;
x0                 =      -1.1889561048e-03 ;
y0                 =       0.0000000000e+00 ;
px0                =      -3.9459643938e-05 ;
py0                =       0.0000000000e+00 ;
dpx0               =      -8.4544873210e-02 ;
dpy0               =      -0.0000000000e+00 ;
