/*********************************************************************
Initial conditions from MADX model of PSB extraction to BT lines
*********************************************************************/

betx0              =       5.8753179375e+00 ;
bety0              =       2.3653394187e+01 ;
alfx0              =       7.6562031501e-01 ;
alfy0              =      -9.5299913576e-01 ;
dx0                =       1.5596327863e+00 ;
dy0                =       1.8687050432e-01 ;
dpx0               =      -2.3622529163e-01 ;
dpy0               =       3.2178503731e-02 ;
x0                 =       0.0000000000e+00 ;
px0                =       0.0000000000e+00 ;
