alfx0 =  -3.368561e-01;
alfy0  = 4.077631e-02 ;
betx0  = 1.985962e+01 ;
bety0  = 1.259253e+04 ;
dpx0   = -3.608015e-02;
dpy0   = -9.187123e-04;
dx0    = -1.001105e+00;
dy0    = -5.617030e-01;
epsx  =  4.679202e-08 ;
epsy  =  7.547249e-09 ;

INITBETA0_TT22: BETA0,
  BETX=BETX0,
  ALFX=ALFX0,
  MUX=MUX0,
  BETY=BETY0,
  ALFY=ALFY0,
  MUY=MUY0,
  T=0,
  DX=DX0,
  DPX=DPX0,
  DY=DY0,
  DPY=DPY0,
  X=X0,
  PX=PX0,
  Y=PY0,
  PY=PY0,
  PT=PT0;
