/*********************************************************************
Initial conditions from MADX model of PSB extraction to BT lines
*********************************************************************/

betx0              =       1.1642692770e+01 ;
bety0              =       2.1658083861e+01 ;
alfx0              =      -1.6295956963e-01 ;
alfy0              =       1.9036612052e-02 ;
dx0                =       2.5867011675e+00 ;
dy0                =       5.5332993044e-01 ;
dpx0               =      -4.0681392510e-03 ;
dpy0               =       1.1564135682e-02 ;
x0                 =      -7.3017175887e-03 ;
px0                =       2.0762733878e-04 ;
