/*********************************************************************
Initial conditions from MADX model of PSB extraction to BT lines
*********************************************************************/

betx0              =       3.6570925099e+00 ;
bety0              =       1.5791817778e+00 ;
alfx0              =       1.8686199404e+00 ;
alfy0              =       3.8534116614e-01 ;
dx0                =       1.3217159319e+00 ;
dy0                =       2.5925284803e-02 ;
dpx0               =      -3.5377205771e-02 ;
dpy0               =       1.4024796620e-01 ;
x0                 =       0.0000000000e+00 ;
px0                =       0.0000000000e+00 ;
