/*********************************************************************
Initial conditions from MADX model of PSB extraction to BT lines
*********************************************************************/

betx0              =       5.9453795912e+00 ;
bety0              =       4.6218677355e+00 ;
alfx0              =       2.3590046777e-01 ;
alfy0              =       3.1525059032e-01 ;
dx0                =      -1.5245546571e+00 ;
dy0                =      -0.0000000000e+00 ;
dpx0               =       5.3985547089e-05 ;
dpy0               =      -0.0000000000e+00 ;
x0                 =       0.0000000000e+00 ;
px0                =       0.0000000000e+00 ;
