 set, format="22.10e";
option, RBARC=FALSE;

TT2.INITBETA0:  BETA0,
       BETX := betx0,
       ALFX := alfx0,
       BETY := bety0,
       ALFY := alfy0,
       DX   := dx0,
       DPX  := dpx0,
       DY   := dy0,
       DPY  := dpy0;