/*********************************************************************************
*********************************************************************************/

betx0              =        29.11948776 ;
bety0              =        253.3759862 ;
alfx0              =       0.2456715037 ;
alfy0              =       -1.335208856 ;
dx0                =      -0.2626856756 ;
dy0                =       0.7835715063 ;
x0                 =                  0 ;
y0                 =                  0 ;
px0                =                  0 ;
py0                =                  0 ;
dpx0               =    -0.005512604542 ;
dpy0               =     0.004204172834 ;
