/*********************************************************************
Initial conditions from MADX model of PSB extraction to BT lines
*********************************************************************/

betx0              =       7.3059297422e+00 ;
bety0              =       2.1551720650e+01 ;
alfx0              =       2.9100021474e-01 ;
alfy0              =       6.8866134012e-01 ;
dx0                =       1.7303983155e+00 ;
dy0                =       7.1530558044e-01 ;
dpx0               =      -1.0822037120e-01 ;
dpy0               =      -5.3461905441e-03 ;
x0                 =       0.0000000000e+00 ;
px0                =       0.0000000000e+00 ;
