/*********************************************************************
Initial conditions from MADX model of PSB extraction to BT lines
*********************************************************************/

betx0              =       8.1174934912e+00 ;
bety0              =       1.9969842854e+01 ;
alfx0              =      -4.2138755729e-02 ;
alfy0              =       5.8533929828e-01 ;
dx0                =       1.8394575575e+00 ;
dy0                =       1.7569872644e-01 ;
dpx0               =      -1.1443195120e-02 ;
dpy0               =       2.1611802525e-02 ;
x0                 =       0.0000000000e+00 ;
px0                =       0.0000000000e+00 ;
