/*********************************************************************************
Initial conditions from MADX stitched model of PS extraction to TT2TT10SPS LHC Q20 beam
*********************************************************************************/

betx0              =       2.6143100000e+01 ;
bety0              =       1.0883000000e+01 ;
alfx0              =      -2.2287000000e+00 ;
alfy0              =       7.6200000000e-01 ;
dx0                =       3.0414000000e+00 ;
dy0                =       2.4000000000e-02 ;
dpx0               =       2.5256000000e-01 ;
dpy0               =      -1.4000000000e-02 ;
