/*********************************************************************
Initial conditions from MADX model of PSB extraction to BT lines
*********************************************************************/

betx0              =       4.3308878863e+00 ;
bety0              =       1.5860553029e+00 ;
alfx0              =       2.0068776442e+00 ;
alfy0              =       3.8183248295e-01 ;
dx0                =       1.3668941028e+00 ;
dy0                =      -2.7531086776e-03 ;
dpx0               =      -6.5578751322e-02 ;
dpy0               =       1.0502453450e-02 ;
x0                 =       4.1346949176e-04 ;
px0                =      -1.3283564209e-03 ;
