/*********************************************************************
Initial conditions from MADX model of ELENA extraction to LNE00
*********************************************************************/

betx0              =       3.5476055931e+00 ;
bety0              =       1.2571289777e+00 ;
alfx0              =       1.9317716245e+00 ;
alfy0              =      -4.4521286060e-01 ;
dx0                =       1.2299350107e+02 ;
dy0                =      -3.5408713053e-02 ;
dpx0               =      -8.9016347470e+01 ;
dpy0               =      -6.7504014901e-03 ;
x0                 =       1.4367187829e-11 ;
px0                =      -6.4751535389e-12 ;
