/*********************************************************************
Initial conditions from MADX model of PSB extraction to BT lines
*********************************************************************/

betx0              =       1.1393208276e+01 ;
bety0              =       4.5187888949e+00 ;
alfx0              =       1.3761968545e+00 ;
alfy0              =       1.8888905340e+00 ;
dx0                =      -4.4367552086e+00 ;
dy0                =      -1.6373907107e-01 ;
dpx0               =       5.6226267152e-01 ;
dpy0               =       1.1880284476e-01 ;
x0                 =       0.0000000000e+00 ;
px0                =       0.0000000000e+00 ;
