/*********************************************************************
Initial conditions from MADX model of PSB extraction to BT lines
*********************************************************************/

betx0              =       2.8900042680e+00 ;
bety0              =       1.5898974158e+00 ;
alfx0              =       1.2602226033e+00 ;
alfy0              =       3.7310619891e-01 ;
dx0                =       9.4169507225e-01 ;
dy0                =      -1.2686600951e-01 ;
dpx0               =       3.2442340806e-01 ;
dpy0               =      -1.5124975490e-02 ;
x0                 =       7.1659270369e-04 ;
px0                =      -1.6867262483e-03 ;
