/*********************************************************************
Initial conditions from MADX model of ELENA extraction to LNE00
*********************************************************************/

betx0              =       1.3044099549e+00 ;
bety0              =       5.6059331571e+00 ;
alfx0              =      -6.4769883507e-01 ;
alfy0              =       2.7207929531e+00 ;
dx0                =      -1.0656093647e+02 ;
dy0                =      -3.5671417840e-02 ;
dpx0               =       1.0988444325e+02 ;
dpy0               =       8.7553846405e-02 ;
x0                 =      -6.2465621811e-12 ;
px0                =      -8.4035876004e-12 ;
