/*********************************************************************
Initial conditions from MADX model of ELENA extraction to LNE00
*********************************************************************/

betx0              =        2.139877767 ;
bety0              =        2.448952033 ;
alfx0              =   -1.387597087e-11 ;
alfy0              =    6.576790746e-11 ;
dx0                =          82.216729 ;
dy0                =      0.05051542962 ;
dpx0               =   -0.0009845945439 ;
dpy0               =   -2.570182291e-05 ;
x0                 =    2.013362466e-18 ;
px0                =   -5.486210393e-12 ;
