! Start of TT23 as obtained from particle tracking simulation in SPS with COSE for high transmission test 2024

betx0 = 34.87110905672335;
alfx0 = -1.20493186028819;
bety0 = 182.84325092431098;
alfy0 = -1.7240974281741424;
dx0 = -1.628317405705314;
dy0 = -0.4874091677821532;
dpx0 = -0.10946248212421227;
dpy0 = -0.0032014838481259898;
ex0 = 3.3091589400834156e-08;
ey0 = 3.034236445893594e-07;
exn0 = 1.2352041462433346e-06;
eyn0 = 1.1325842930215771e-05;
dpp0 = 0.0004351124115804211;

INITBETA0_TT23: BETA0,
  BETX=BETX0,
  ALFX=ALFX0,
  MUX=MUX0,
  BETY=BETY0,
  ALFY=ALFY0,
  MUY=MUY0,
  T=0,
  DX=DX0,
  DPX=DPX0,
  DY=DY0,
  DPY=DPY0,
  X=X0,
  PX=PX0,
  Y=PY0,
  PY=PY0,
  PT=PT0;
