/*********************************************************************
Initial conditions from MADX model of PSB extraction to BT lines
*********************************************************************/

betx0              =       5.9468206468e+00 ;
bety0              =       4.6202614926e+00 ;
alfx0              =       2.3604125260e-01 ;
alfy0              =       3.1387280197e-01 ;
dx0                =      -1.5106371173e+00 ;
dy0                =      -0.0000000000e+00 ;
dpx0               =       2.2981955223e-03 ;
dpy0               =      -0.0000000000e+00 ;
x0                 =      -2.6723377163e-09 ;
px0                =       2.5466451292e-10 ;
