/*********************************************************************
Initial conditions from MADX model of PSB extraction to BT lines
*********************************************************************/

betx0              =       2.8107074389e+00 ;
bety0              =       1.4140326665e+00 ;
alfx0              =       1.2002080357e+00 ;
alfy0              =       8.5420565161e-02 ;
dx0                =       1.7040378843e+00 ;
dy0                =       1.0681082072e-02 ;
dpx0               =      -1.9732573488e-01 ;
dpy0               =       6.7549894001e-03 ;
x0                 =      -9.7438749388e-04 ;
px0                =      -9.5687368893e-04 ;
