/*********************************************************************
Initial conditions from MADX model of PSB extraction to BT lines
*********************************************************************/

betx0              =       7.6291178612e+00 ;
bety0              =       2.0119083628e+01 ;
alfx0              =       1.4707840592e-01 ;
alfy0              =       5.8847970320e-01 ;
dx0                =       1.7821387044e+00 ;
dy0                =      -2.9441022501e-02 ;
dpx0               =      -9.2151783743e-03 ;
dpy0               =       3.1452903712e-03 ;
x0                 =       0.0000000000e+00 ;
px0                =       0.0000000000e+00 ;
