/*********************************************************************************
Initial conditions from TL => tt66 for hiradmat optics
*********************************************************************************/

betx0              =        27.77906807 ;
bety0              =        120.3992069 ;
alfx0              =          0.6361188 ;
alfy0              =          -2.706219 ;
dx0                =          -0.598663 ;
dy0                =                  0 ;
x0                 =                  0 ;
y0                 =                  0 ;
px0                =                  0 ;
py0                =                  0 ;
dpx0               =         0.01603536 ;
dpy0               =                  0 ;
