
/******************************************************************************
 * Input parameters to LEIR_injection.madx
 * Start of ITH (end of LINAC3)
 ******************************************************************************/
 
BETX0  :=  38.0;
ALFX0  :=   2.2;
MUX0   :=   0.0;
BETY0  :=  22.0;
ALFY0  :=  -2.8;
MUY0   :=   0.0;
X0     :=   0.0;
PX0    :=   0.0;
Y0     :=   0.0;
PY0    :=   0.0;
T0     :=   0.0;
PT0    :=   0.0;
DX0    :=   0.871;
DPX0   :=  -0.021;
DY0    :=   0.0;
DPY0   :=   0.0;



/******************************************************************************
 !--------------------------------------------------------------
 ! For compatibility with the MAD8 files,
 ! the following optical parameters must be set @ ITE.START :
 !   BETX  :=  25.0;
 !   ALFX  :=   0.0;
 !   BETY  :=  20.0;
 !   ALFY  :=   0.0;
 !---------------------------------------------------------------
 
Beam; use, period=leir_injection, range=#s/#e;

 BETX0  :=  5.09860;
 ALFX0  :=  0.228000;
 BETY0  :=  8.29970;
 ALFY0  := -0.505000;

 match, use_macro;
    vary, name=BETX0,        step=0.00001;
    vary, name=ALFX0,        step=0.00001;
    vary, name=BETY0,        step=0.00001;
    vary, name=ALFY0,        step=0.00001;

    use_macro,name=twiss;

    constraint, expr=table(twiss,ITE.START,BETX)=25.0;
    constraint, expr=table(twiss,ITE.START,ALFX)= 0.0;
    constraint, expr=table(twiss,ITE.START,BETY)=20.0;
    constraint, expr=table(twiss,ITE.START,ALFY)= 0.0;
  
    lmdif, calls=1000, tolerance=1E-12;
 endmatch;

  value,table(twiss,ITE.START,betx);
  value,table(twiss,ITE.START,alfx);
  value,table(twiss,ITE.START,bety);
  value,table(twiss,ITE.START,alfy);
 ******************************************************************************/

return;

