/*********************************************************************
Initial conditions from MADX model of PSB extraction to BT lines
*********************************************************************/

betx0              =       5.5969899775e+00 ;
bety0              =       2.3348176691e+01 ;
alfx0              =       8.0582195836e-01 ;
alfy0              =      -6.1794649979e-01 ;
dx0                =       1.5309067641e+00 ;
dy0                =      -3.2064567713e-02 ;
dpx0               =      -1.9976357440e-01 ;
dpy0               =       1.2620744664e-03 ;
x0                 =       0.0000000000e+00 ;
px0                =       0.0000000000e+00 ;
