/*********************************************************************
Initial conditions from MADX model of PSB extraction to BT lines
*********************************************************************/

betx0              =       6.1036688605e+00 ;
bety0              =       2.3621936517e+01 ;
alfx0              =       8.4721142514e-01 ;
alfy0              =      -6.2422830972e-01 ;
dx0                =       1.6018150646e+00 ;
dy0                =      -5.9491992241e-01 ;
dpx0               =      -2.1998557123e-01 ;
dpy0               =      -5.6213702513e-03 ;
x0                 =       0.0000000000e+00 ;
px0                =       0.0000000000e+00 ;
