! Start of TT23 as obtained from particle tracking simulation in SPS with COSE
alfx0 = -6.655731e-01;
alfy0  =-5.963670e-01;
betx0  =2.526940e+01 ;
bety0  =8.989905e+03 ;
dpx0   =5.870819e-02 ;
dpy0   =-2.868697e-04;
dx0    =7.481295e-01 ;
dy0    =-4.083817e-01;
epsx  = 4.467169e-08 ;
epsy  = 4.955348e-09 ;

