/*********************************************************************************
Initial conditions from MADX stitched model of PS extraction to TT2 TT10 SFTPRO beam
*********************************************************************************/

betx0              =       2.9431890097e+01 ;
bety0              =       8.6961749147e+00 ;
alfx0              =      -2.7527389689e+00 ;
alfy0              =       1.0458103420e+00 ;
dx0                =       3.1591994380e+00 ;
dy0                =       0.0000000000e+00 ;
dpx0               =       2.4982117978e-01 ;
dpy0               =       0.0000000000e+00 ;
