/*********************************************************************************
Initial conditions from MADX stitched model of SPS => sps_tt40_tt41 for q20 optics
*********************************************************************************/

betx0              =       3.2392508318e+01 ;
bety0              =       1.0434030116e+02 ;
alfx0              =      -6.2220059848e-01 ;
alfy0              =       1.8684230339e+00 ;
dx0                =      -3.4809242788e-01 ;
dy0                =       0.0000000000e+00 ;
x0                 =       1.7312647575e-02 ;
y0                 =       0.0000000000e+00 ;
px0                =      -2.4909909359e-06 ;
py0                =       0.0000000000e+00 ;
dpx0               =       2.7465828385e-03 ;
dpy0               =       0.0000000000e+00 ;
