/*********************************************************************
Initial conditions from MADX model of PSB extraction to BT lines
*********************************************************************/

betx0              =       1.4037090991e+01 ;
bety0              =       2.1674190220e+01 ;
alfx0              =      -2.1966017077e-01 ;
alfy0              =       3.0262536976e-02 ;
dx0                =       2.6293916785e+00 ;
dy0                =      -2.0756275226e-01 ;
dpx0               =      -6.6748885702e-03 ;
dpy0               =      -3.5883003980e-02 ;
x0                 =      -7.5899785028e-03 ;
px0                =       2.2558689059e-04 ;
