/*********************************************************************
Initial conditions from MADX model of PSB extraction to BT lines
*********************************************************************/

betx0              =       5.8174201270e+00 ;
bety0              =       4.4509211249e+00 ;
alfx0              =       1.8146299555e-01 ;
alfy0              =       2.4232340304e-01 ;
dx0                =      -1.5245381056e+00 ;
dy0                =       0.0000000000e+00 ;
dpx0               =       5.3985547072e-05 ;
dpy0               =       0.0000000000e+00 ;
x0                 =       0.0000000000e+00 ;
px0                =       0.0000000000e+00 ;
