/*********************************************************************
Initial conditions from MADX model of PSB extraction to BT lines
*********************************************************************/

betx0              =       3.1447141612e+00 ;
bety0              =       1.5933047183e+00 ;
alfx0              =       1.3337413289e+00 ;
alfy0              =       3.8578161308e-01 ;
dx0                =       8.9687198316e-01 ;
dy0                =      -1.4340951144e-03 ;
dpx0               =       3.2774600872e-01 ;
dpy0               =       1.0276431974e-02 ;
x0                 =       8.8132928240e-04 ;
px0                =      -1.6828565318e-03 ;
