/*********************************************************************
Initial conditions from MADX model of PSB extraction to BT lines
*********************************************************************/

betx0              =       2.8120455083e+00 ;
bety0              =       1.5851172523e+00 ;
alfx0              =       1.4082685943e+00 ;
alfy0              =       3.8815806292e-01 ;
dx0                =       8.4717942999e-01 ;
dy0                =       4.5507351493e-02 ;
dpx0               =       3.5786966161e-01 ;
dpy0               =       1.3324400440e-01 ;
x0                 =       0.0000000000e+00 ;
px0                =       0.0000000000e+00 ;
