/*********************************************************************
Initial conditions from MADX model of PSB extraction to BT lines
*********************************************************************/

betx0              =       1.0784003385e+01 ;
bety0              =       4.4988889314e+00 ;
alfx0              =       1.1289208795e+00 ;
alfy0              =       1.8744488867e+00 ;
dx0                =      -4.4936781072e+00 ;
dy0                =       3.6825383184e-01 ;
dpx0               =       5.6812632931e-01 ;
dpy0               =      -1.6020105183e-01 ;
x0                 =       0.0000000000e+00 ;
px0                =       0.0000000000e+00 ;
