/*********************************************************************
Initial conditions from MADX model of ELENA extraction to LNE00
*********************************************************************/

betx0              =       2.7255541784e+00 ;
bety0              =       1.4286159796e+00 ;
alfx0              =       1.6785236647e+00 ;
alfy0              =      -6.2207595129e-01 ;
dx0                =      -1.2578115465e+02 ;
dy0                =       1.1878148843e-01 ;
dpx0               =       8.3944681209e+01 ;
dpy0               =      -4.4545660823e-01 ;
x0                 =      -6.0746797974e-12 ;
px0                =       8.0776126846e-12 ;
