/*********************************************************************************
Initial conditions from MADX stitched model of SPS => ti8lhcb2 for q20 optics
*********************************************************************************/

betx0              =        27.93108086999999884 ;
bety0              =       120.05843812999999898 ;
alfx0              =         0.65054900000000004 ;
alfy0              =        -2.70513447999999990 ;
dx0                =        -0.58140484000000003 ;
dy0                =         0.00000000000000000 ;
x0                 =         0.00000000000000000 ;
y0                 =         0.00000000000000000 ;
px0                =         0.00000000000000000 ;
py0                =         0.00000000000000000 ;
dpx0               =         0.01446870000000000 ;
dpy0               =         0.00000000000000000 ;
