/*********************************************************************
Initial conditions from MADX model of PSB extraction to BT lines
*********************************************************************/

betx0              =       5.6413662551e+00 ;
bety0              =       4.2425382604e+00 ;
alfx0              =      -5.9932610372e-02 ;
alfy0              =      -8.2777653668e-02 ;
dx0                =      -1.5018686997e+00 ;
dy0                =       0.0000000000e+00 ;
dpx0               =       4.4431634616e-02 ;
dpy0               =       0.0000000000e+00 ;
x0                 =       0.0000000000e+00 ;
px0                =       0.0000000000e+00 ;
