/*********************************************************************************
Initial conditions from MADX stitched model of SPS => sps_tt20t2 for sftpro optics
*********************************************************************************/

betx0              =       2.0974541351e+01 ;
bety0              =       9.7799556322e+01 ;
alfx0              =      -5.6914893796e-01 ;
alfy0              =       2.2493737326e+00 ;
dx0                =      -6.9283109597e-02 ;
dy0                =       0.0000000000e+00 ;
x0                 =      -1.8629476797e-02 ;
y0                 =       0.0000000000e+00 ;
px0                =      -4.6322409618e-04 ;
py0                =       0.0000000000e+00 ;
dpx0               =       6.8780573361e-03 ;
dpy0               =       0.0000000000e+00 ;
