/*********************************************************************
Initial conditions from MADX model of PSB extraction to BT lines
*********************************************************************/

betx0              =       6.0703129039e+01 ;
bety0              =       5.8264748775e+01 ;
alfx0              =      -3.3704587348e+00 ;
alfy0              =      -6.4492416124e+00 ;
dx0                =      -1.4324203252e+01 ;
dy0                =      -3.1903876025e-01 ;
dpx0               =      -7.7786312231e-01 ;
dpy0               =      -5.0870860663e-02 ;
x0                 =       0.0000000000e+00 ;
px0                =       0.0000000000e+00 ;
