/*********************************************************************
Initial conditions from MADX model of PSB extraction to BT lines
*********************************************************************/

betx0              =       1.0065638682e+01 ;
bety0              =       4.4813498108e+00 ;
alfx0              =       1.1122692561e+00 ;
alfy0              =       1.8561320401e+00 ;
dx0                =      -4.3829253025e+00 ;
dy0                =       2.0624207103e-01 ;
dpx0               =       5.5088932645e-01 ;
dpy0               =      -4.7761928243e-02 ;
x0                 =       0.0000000000e+00 ;
px0                =       0.0000000000e+00 ;
