/*********************************************************************
Initial conditions from MADX model of ELENA extraction to LNE00
*********************************************************************/

betx0              =       4.7124441166e+00 ;
bety0              =       4.5878771974e+00 ;
alfx0              =       2.7956192038e+00 ;
alfy0              =       4.8427373237e-01 ;
dx0                =       8.2833753225e+01 ;
dy0                =      -1.5467600472e-02 ;
dpx0               =       5.5307968918e+00 ;
dpy0               =       1.6321261275e-02 ;
x0                 =      -5.2713757853e-12 ;
px0                =       6.6508600866e-12 ;
