/*********************************************************************
Initial conditions from MADX model of PSB extraction to BT lines
*********************************************************************/

betx0              =       8.1070771221e+00 ;
bety0              =       1.9977464535e+01 ;
alfx0              =      -4.2237004931e-02 ;
alfy0              =       5.8641690412e-01 ;
dx0                =       1.8312297802e+00 ;
dy0                =       1.7569872644e-01 ;
dpx0               =      -7.4508364824e-03 ;
dpy0               =       2.1611802525e-02 ;
x0                 =       0.0000000000e+00 ;
px0                =       0.0000000000e+00 ;
