/*********************************************************************
Initial conditions from MADX model of PSB extraction to BT lines
*********************************************************************/

betx0              =       4.3131080558e+01 ;
bety0              =       7.0269921562e+01 ;
alfx0              =      -4.4904335115e+00 ;
alfy0              =      -3.2499213641e+00 ;
dx0                =       5.0062970864e+00 ;
dy0                =       1.0307411928e+00 ;
dpx0               =       5.8169517305e-01 ;
dpy0               =       3.3471837371e-02 ;
x0                 =       2.6807704859e-03 ;
px0                =      -7.7284948573e-05 ;
