/*********************************************************************
Initial conditions from MADX model of PSB extraction to BT lines
*********************************************************************/

betx0              =       4.3080459596e+01 ;
bety0              =       7.0541496132e+01 ;
alfx0              =      -4.4838756370e+00 ;
alfy0              =      -3.2629168492e+00 ;
dx0                =       4.8867812519e+00 ;
dy0                =       1.0317005858e+00 ;
dpx0               =       5.6976450034e-01 ;
dpy0               =       3.3535752738e-02 ;
x0                 =       0.0000000000e+00 ;
px0                =       0.0000000000e+00 ;
