/*********************************************************************************
Initial conditions from MADX stitched model of SPS for LHC Q20 beam
*********************************************************************************/

betx0              =       2.7547114247e+01 ;
bety0              =       1.2174376789e+02 ;
alfx0              =       6.4220879453e-01 ;
alfy0              =      -2.7456758649e+00 ;
dx0                =      -5.2754395318e-01 ;
dy0                =       0.0000000000e+00 ;
x0                 =       0.0000000000e+00 ;
y0                 =       0.0000000000e+00 ;
dpx0               =       9.0251104114e-03 ;
dpy0               =       0.0000000000e+00 ;
px0                =       0.0000000000e+00 ;
py0                =       0.0000000000e+00 ;
