/*********************************************************************
Initial conditions from quadrupole scan of PS SX (with main unit fringe)
*********************************************************************/

betx0              =       1.5408350452e+02 ;
bety0              =       5.2225665271e+00 ;
alfx0              =      -3.6904729450e+01 ;
alfy0              =       2.5230748979e-01 ;
dx0                =       1.3000000000e-01 ;
dy0                =       0.0000000000e+00 ;
dpx0               =       2.0000000000e-02 ;
dpy0               =       0.0000000000e+00 ;
x0                 =       0.0000000000e+00 ;
px0                =       0.0000000000e+00 ;
