/*********************************************************************
Initial conditions from MADX model of PSB extraction to BT lines
*********************************************************************/

betx0              =       2.5852180954e+01 ;
bety0              =       5.3455813810e+00 ;
alfx0              =      -9.1272699183e+00 ;
alfy0              =      -1.2364116175e+00 ;
dx0                =       4.6683329814e+00 ;
dy0                =       8.8697428779e-03 ;
dpx0               =       1.8376342872e+00 ;
dpy0               =       7.2285829489e-03 ;
x0                 =      -1.6265655360e-03 ;
px0                =      -1.0368198902e-03 ;
