/*********************************************************************
Initial conditions from MADX model of PSB extraction to BT lines
*********************************************************************/

betx0              =       7.6196478303e+00 ;
bety0              =       2.0126782234e+01 ;
alfx0              =       1.4724896569e-01 ;
alfy0              =       5.8955654847e-01 ;
dx0                =       1.7667015744e+00 ;
dy0                =      -2.9441022501e-02 ;
dpx0               =      -5.2738079044e-03 ;
dpy0               =       3.1452903712e-03 ;
x0                 =       0.0000000000e+00 ;
px0                =       0.0000000000e+00 ;
