/*********************************************************************
Initial conditions from MADX model of PSB extraction to BT lines
*********************************************************************/

betx0              =       1.0928694090e+01 ;
bety0              =       4.5005827202e+00 ;
alfx0              =       1.4002266020e+00 ;
alfy0              =       1.8703248972e+00 ;
dx0                =      -4.3151571773e+00 ;
dy0                =      -1.5833294546e-04 ;
dpx0               =       5.4356082164e-01 ;
dpy0               =       5.8012449248e-03 ;
x0                 =       0.0000000000e+00 ;
px0                =       0.0000000000e+00 ;
